/Users/LalinPethiyagoda/IdeaProjects/grpc_stuff/target/generated-sources/protobuf/java/com/java/protobuff/stuff/TransferOrBuilder.java
/Users/LalinPethiyagoda/IdeaProjects/grpc_stuff/target/generated-sources/protobuf/java/com/java/protobuff/stuff/Transfer.java
/Users/LalinPethiyagoda/IdeaProjects/grpc_stuff/target/generated-sources/protobuf/java/com/java/protobuff/stuff/TransferResponseOrBuilder.java
/Users/LalinPethiyagoda/IdeaProjects/grpc_stuff/target/generated-sources/protobuf/grpc-java/com/java/protobuff/stuff/BankGrpc.java
/Users/LalinPethiyagoda/IdeaProjects/grpc_stuff/target/generated-sources/protobuf/java/com/java/protobuff/stuff/BankOuterClass.java
/Users/LalinPethiyagoda/IdeaProjects/grpc_stuff/target/generated-sources/protobuf/java/com/java/protobuff/stuff/TransferResponse.java
